{
  "project_info": {
    "project_number": "393207811507",
    "firebase_url": "https://taxiride-ios.firebaseio.com",
    "project_id": "taxiride-ios",
    "storage_bucket": "taxiride-ios.appspot.com"
  },
  "client": [
    {
      "client_info": {
        "mobilesdk_app_id": "1:393207811507:android:e22833ba7c5aae68398fc6",
        "android_client_info": {
          "package_name": "biz.advance_it_group.taxiride_ios"
        }
      },
      "oauth_client": [
        {
          "client_id": "393207811507-qp9g40t0lvjn30e8n3klnujeg8krr9bq.apps.googleusercontent.com",
          "client_type": 3
        }
      ],
      "api_key": [
        {
          "current_key": "AIzaSyBbxVlUlRja5BTLhQZjms5FgHg_NGSt1d4"
        }
      ],
      "services": {
        "appinvite_service": {
          "other_platform_oauth_client": [
            {
              "client_id": "393207811507-qp9g40t0lvjn30e8n3klnujeg8krr9bq.apps.googleusercontent.com",
              "client_type": 3
            }
          ]
        }
      }
    }
  ],
  "configuration_version": "1"
}